// Jest Snapshot v1, https://goo.gl/fbAQLP

exports[`Snapshots 1`] = `
<div
  className="form"
>
  <ProgressBar
    message="Thank you!"
    width="100%"
  />
  <img
    alt="check-img"
    className="check-img"
    src="/images/check-mark.png"
  />
  <button
    className="dashboard-btn"
    onClick={[Function]}
  >
    Go to Dashboard
    <img
      alt="right-arrow"
      src="/images/right-arrow.png"
    />
  </button>
</div>
`;
