// Jest Snapshot v1, https://goo.gl/fbAQLP

exports[`Snapshot 1`] = `
<div>
  <form
    className="form"
    onSubmit={[Function]}
  >
    <ProgressBar
      message="Signup"
      width="66%"
    />
    <label
      className="date-label main-label"
    >
      date of birth
    </label>
    <div
      className="date-form"
    >
      <input
        autoComplete="off"
        autoFocus={true}
        className="date-input"
        name="day"
        onChange={[Function]}
        placeholder="DD"
        type="text"
        value=""
      />
      <input
        autoComplete="off"
        className="date-input"
        name="month"
        onChange={[Function]}
        placeholder="MM"
        type="text"
        value=""
      />
      <input
        autoComplete="off"
        className="date-input"
        name="year"
        onChange={[Function]}
        placeholder="YYYY"
        type="text"
        value=""
      />
    </div>
    <label
      className="main-label gender-label"
    >
      gender
    </label>
    <div
      className="gender-form"
    >
      <input
        checked={true}
        className="gender-input"
        id="male"
        onChange={[Function]}
        type="radio"
        value="male"
      />
      <label
        htmlFor="male"
      >
        male
      </label>
      <input
        checked={false}
        className="gender-input"
        id="female"
        onChange={[Function]}
        type="radio"
        value="female"
      />
      <label
        htmlFor="female"
      >
        female
      </label>
      <input
        checked={false}
        className="gender-input"
        id="unspecified"
        onChange={[Function]}
        type="radio"
        value="unspecified"
      />
      <label
        htmlFor="unspecified"
      >
        unspecified
      </label>
    </div>
    <label
      className="main-label about-label"
    >
      where did you hear about?
    </label>
    <select
      className="about-select"
      onChange={[Function]}
    >
      <option />
      <option
        value="from_friends"
      >
        from friends
      </option>
      <option
        value="from_social"
      >
        from social networks
      </option>
      <option
        value="from_university"
      >
        from university
      </option>
    </select>
    <hr
      className="bottom-line"
    />
    <div
      className="section-2-btn"
    >
      <Link
        className="back-btn"
        replace={false}
        to="/"
      >
        Back
      </Link>
      <div
        className="btn"
      >
        <button
          className="next-btn"
          type="submit"
        >
          Next
        </button>
        <img
          alt="right-arrow"
          src="./images/right-arrow.png"
        />
      </div>
    </div>
  </form>
</div>
`;
